·
…
library(tibble)
yelp_tbl <- as_data_frame(yelp_flat)

Warning as_data_frame() is deprecated, use as_tibble() (but mind
the new semantics).

This warning is displayed once per session.

yelp_tbl

## # A tibble: 61,184 x 105
##    business_id full_address open  categories city  review_count name 
##    <chr>       <chr>        <lgl> <list>     <chr>        <int> <chr>
##  1 vcNAWiLM4d… "4840 E Ind… TRUE  <chr [2]>  Phoe…            9 Eric…
##  2 UsFtqoBl7n… "202 McClur… TRUE  <chr [1]>  Drav…            4 Clan…
##  3 cE27W9VPgO… "1530 Hamil… FALSE <chr [3]>  Beth…            5 Cool…
##  4 HZdLhv6COC… "301 S Hill… TRUE  <chr [6]>  Pitt…            3 Veri…
##  5 mVHrayjG3u… "414 Hawkin… TRUE  <chr [5]>  Brad…           11 Emil…
##  6 KayYbHCt-R… "141 Hawtho… TRUE  <chr [4]>  Carn…           15 Alex…
##  7 b12U9TFESS… "718 Hope H… TRUE  <chr [2]>  Carn…            5 Flyn…
##  8 Sktj1eHQFu… "920 Forsyt… TRUE  <chr [2]>  Carn…            4 Fors…
##  9 3ZVKmuK2l7… "8 Logan St… TRUE  <chr [2]>  Carn…            3 Quak…
## 10 wJr6kSA5dc… "2100 Washi… TRUE  <chr [4]>  Carn…            8 King…
## # … with 61,174 more rows, and 98 more variables: neighborhoods <list>,
## #   longitude <dbl>, state <chr>, stars <dbl>, latitude <dbl>, type <chr>,
## #   hours.Tuesday.close <chr>, hours.Tuesday.open <chr>,
## #   hours.Friday.close <chr>, hours.Friday.open <chr>,
## #   hours.Monday.close <chr>, hours.Monday.open <chr>,
## #   hours.Wednesday.close <chr>, hours.Wednesday.open <chr>,
## #   hours.Thursday.close <chr>, hours.Thursday.open <chr>,
## #   hours.Sunday.close <chr>, hours.Sunday.open <chr>,
## #   hours.Saturday.close <chr>, hours.Saturday.open <chr>, `attributes.By
…
yelp_tbl2<-yelp_tbl %>% mutate(categories = as.character(categories)) %>% select(categories)

Drop now when you look at the data again, looks there are bunch of
variables whose name starts with either ‘hours’ or ‘attributes’.

yelp_tbl %>% 
 select(-starts_with("hours"), -starts_with("attribute"))

## # A tibble: 61,184 x 13
##    business_id full_address open  categories city  review_count name 
##    <chr>       <chr>        <lgl> <list>     <chr>        <int> <chr>
##  1 vcNAWiLM4d… "4840 E Ind… TRUE  <chr [2]>  Phoe…            9 Eric…
##  2 UsFtqoBl7n… "202 McClur… TRUE  <chr [1]>  Drav…            4 Clan…
##  3 cE27W9VPgO… "1530 Hamil… FALSE <chr [3]>  Beth…            5 Cool…
##  4 HZdLhv6COC… "301 S Hill… TRUE  <chr [6]>  Pitt…            3 Veri…
##  5 mVHrayjG3u… "414 Hawkin… TRUE  <chr [5]>  Brad…           11 Emil…
##  6 KayYbHCt-R… "141 Hawtho… TRUE  <chr [4]>  Carn…           15 Alex…
##  7 b12U9TFESS… "718 Hope H… TRUE  <chr [2]>  Carn…            5 Flyn…
##  8 Sktj1eHQFu… "920 Forsyt… TRUE  <chr [2]>  Carn…            4 Fors…
##  9 3ZVKmuK2l7… "8 Logan St… TRUE  <chr [2]>  Carn…            3 Quak…
## 10 wJr6kSA5dc… "2100 Washi… TRUE  <chr [4]>  Carn…            8 King…
## # … with 61,174 more rows, and 6 more variables: neighborhoods <list>,
## #   longitude <dbl>, state <chr>, stars <dbl>, latitude <dbl>, type <chr>
…
Now, let’s find out how many ‘Restaurant’ business in the data. We can
use ‘str_detect()’ function from ‘stringr’ package to find the
businesses whose ‘categories’ variable values contain ‘Restaurant’ text.
If you want to know more detail about this function check out this post.

library(stringr)
yelp_tbl %>% select(-starts_with("hours"), -starts_with("attribute")) %>%
 filter(str_detect(categories, "Restaurant"))

Warning in stri_detect_regex(string, pattern, negate = negate,
opts_regex =

opts(pattern)): argument is not an atomic vector; coercing

## # A tibble: 21,892 x 13
##    business_id full_address open  categories city  review_count name 
##    <chr>       <chr>        <lgl> <list>     <chr>        <int> <chr>
##  1 mVHrayjG3u… "414 Hawkin… TRUE  <chr [5]>  Brad…           11 Emil…
##  2 KayYbHCt-R… "141 Hawtho… TRUE  <chr [4]>  Carn…           15 Alex…
##  3 wJr6kSA5dc… "2100 Washi… TRUE  <chr [4]>  Carn…            8 King…
##  4 fNGIbpazjT… "1201 Washi… TRUE  <chr [5]>  Carn…            5 Rock…
##  5 b9WZJp5L1R… "1073 Washi… TRUE  <chr [2]>  Carn…           38 Gab …
##  6 zaXDakTd3R… "202 3rd Av… TRUE  <chr [2]>  Carn…            5 Barb…
##  7 WETE_Lykpc… "215 E Main… FALSE <chr [5]>  Carn…            6 Padd…
##  8 rv7CY8G_Xi… "Raceway Pl… TRUE  <chr [1]>  Carn…            3 Long…
##  9 SQ0j7bgSTa… "214 E Main… TRUE  <chr [2]>  Carn…            8 Don …
## 10 wqu7ILomIO… "2180 Green… TRUE  <chr [3]>  Pitt…            7 Denn…
## # … with 21,882 more rows, and 6 more variables: neighborhoods <list>,
## #   longitude <dbl>, state <chr>, stars <dbl>, latitude <dbl>, type <chr>
…
yelp_tbl %>% select(-starts_with("hours"), -starts_with("attribute")) %>%
 filter(str_detect(categories, "Restaurant")) %>%
 mutate(categories = as.character(categories)) %>% select(categories)

Warning in stri_detect_regex(string, pattern, negate = negate,
opts_regex =

opts(pattern)): argument is not an atomic vector; coercing

## # A tibble: 21,892 x 1
##    categories                                                              
##    <chr>                                                                   
##  1 "c(\"Bars\", \"American (New)\", \"Nightlife\", \"Lounges\", \"Restaura…
##  2 "c(\"Bars\", \"American (Traditional)\", \"Nightlife\", \"Restaurants\"…
##  3 "c(\"Burgers\", \"Breakfast & Brunch\", \"American (Traditional)\", \"R…
##  4 "c(\"Bars\", \"American (Traditional)\", \"Nightlife\", \"Lounges\", \"…
##  5 "c(\"Breakfast & Brunch\", \"Restaurants\")"                            
##  6 "c(\"Cafes\", \"Restaurants\")"                                         
##  7 "c(\"Pubs\", \"Irish\", \"Nightlife\", \"Bars\", \"Restaurants\")"      
##  8 Restaurants                                                             
##  9 "c(\"Chinese\", \"Restaurants\")"                                       
## 10 "c(\"Breakfast & Brunch\", \"American (Traditional)\", \"Restaurants\")"
## # … with 21,882 more rows
…
library(tidyr)
yelp_tbl %>% select(-starts_with("hours"), -starts_with("attribute")) %>%
 filter(str_detect(categories, "Restaurant")) %>%
 unnest(categories) %>%
 select(name, categories)

Warning in stri_detect_regex(string, pattern, negate = negate,
opts_regex =

opts(pattern)): argument is not an atomic vector; coercing

## # A tibble: 63,909 x 2
##    name                    categories            
##    <chr>                   <chr>                 
##  1 Emil's Lounge           Bars                  
##  2 Emil's Lounge           American (New)        
##  3 Emil's Lounge           Nightlife             
##  4 Emil's Lounge           Lounges               
##  5 Emil's Lounge           Restaurants           
##  6 Alexion's Bar & Grill   Bars                  
##  7 Alexion's Bar & Grill   American (Traditional)
##  8 Alexion's Bar & Grill   Nightlife             
##  9 Alexion's Bar & Grill   Restaurants           
## 10 Kings Family Restaurant Burgers               
## # … with 63,899 more rows
…
yelp_tbl %>% select(-starts_with("hours"), -starts_with("attribute")) %>%
 filter(str_detect(categories, "Restaurant")) %>%
 unnest(categories) %>%
 select(name, categories) %>%
 count(categories)

Warning in stri_detect_regex(string, pattern, negate = negate,
opts_regex =

opts(pattern)): argument is not an atomic vector; coercing

## # A tibble: 284 x 2
##    categories                 n
##    <chr>                  <int>
##  1 Active Life               41
##  2 Adult Entertainment        2
##  3 Afghan                    13
##  4 African                   30
##  5 Airports                   1
##  6 American (New)          1494
##  7 American (Traditional)  2113
##  8 Amusement Parks            2
##  9 Apartments                 1
## 10 Appliances                 1
## # … with 274 more rows
…
yelp_tbl %>% select(-starts_with("hours"), -starts_with("attribute")) %>%
 filter(str_detect(categories, "Restaurant")) %>%
 unnest(categories) %>%
 select(name, categories) %>%
 count(categories) %>%
 arrange(desc(n))

Warning in stri_detect_regex(string, pattern, negate = negate,
opts_regex =

opts(pattern)): argument is not an atomic vector; coercing

## # A tibble: 284 x 2
##    categories                 n
##    <chr>                  <int>
##  1 Restaurants            21892
##  2 Fast Food               2383
##  3 Pizza                   2223
##  4 Mexican                 2208
##  5 American (Traditional)  2113
##  6 Nightlife               2045
##  7 Sandwiches              1981
##  8 Bars                    1934
##  9 Food                    1807
## 10 Italian                 1633
## # … with 274 more rows
…
yelp_tbl %>% select(-starts_with("hours"), -starts_with("attribute")) %>%
 filter(str_detect(categories, "Restaurant")) %>%
 unnest(categories) %>%
 filter(categories != "Restaurants") %>%
 count(categories) %>%
 arrange(desc(n))

Warning in stri_detect_regex(string, pattern, negate = negate,
opts_regex =

opts(pattern)): argument is not an atomic vector; coercing

## # A tibble: 283 x 2
##    categories                 n
##    <chr>                  <int>
##  1 Fast Food               2383
##  2 Pizza                   2223
##  3 Mexican                 2208
##  4 American (Traditional)  2113
##  5 Nightlife               2045
##  6 Sandwiches              1981
##  7 Bars                    1934
##  8 Food                    1807
##  9 Italian                 1633
## 10 Chinese                 1496
## # … with 273 more rows
…
We can simply add ‘state’ variable into ‘count()’ function like below.

yelp_tbl %>% select(-starts_with("hours"), -starts_with("attribute")) %>%
 filter(str_detect(categories, "Restaurant")) %>%
 unnest(categories) %>%
 filter(categories != "Restaurants") %>%
 count(state, categories) %>%
 arrange(desc(n))

Warning in stri_detect_regex(string, pattern, negate = negate,
opts_regex =

opts(pattern)): argument is not an atomic vector; coercing

## # A tibble: 1,483 x 3
##    state categories                 n
##    <chr> <chr>                  <int>
##  1 AZ    Mexican                 1197
##  2 AZ    Fast Food               1035
##  3 AZ    Pizza                    944
##  4 AZ    American (Traditional)   924
##  5 AZ    Sandwiches               834
##  6 AZ    Nightlife                725
##  7 NV    Fast Food                695
##  8 AZ    Bars                     686
##  9 AZ    American (New)           668
## 10 AZ    Burgers                  648
## # … with 1,473 more rows
…
yelp_tbl %>% select(-starts_with("hours"), -starts_with("attribute")) %>%
 filter(str_detect(categories, "Restaurant")) %>%
 unnest(categories) %>%
 filter(categories != "Restaurants") %>%
 count(state, categories) %>%
 group_by(state) %>%
 top_n(1, n)

Warning in stri_detect_regex(string, pattern, negate = negate,
opts_regex =

opts(pattern)): argument is not an atomic vector; coercing

## # A tibble: 25 x 3
## # Groups:   state [18]
##    state categories        n
##    <chr> <chr>         <int>
##  1 AZ    Mexican        1197
##  2 BW    Food             82
##  3 EDH   Food            189
##  4 ELN   British           3
##  5 FIF   Bars              1
##  6 FIF   Cocktail Bars     1
##  7 FIF   Delis             1
##  8 FIF   Fast Food         1
##  9 FIF   Nightlife         1
## 10 IL    Pizza            31
## # … with 15 more rows
…
